Library\Bee\artifacts\mvdfrm\Unity.VisualScripting.Core.Editor.ref.dll_EDC8690F57C5BDFD.mvfrm
Library\Bee\artifacts\mvdfrm\Unity.VisualScripting.Core.ref.dll_D75DF4EA1AFE54F4.mvfrm
Library\Bee\artifacts\mvdfrm\Unity.VisualScripting.Flow.Editor.ref.dll_6AF951BE66A4493E.mvfrm
Library\Bee\artifacts\mvdfrm\Unity.VisualScripting.Flow.ref.dll_1E6ED5409D07C9A3.mvfrm
Library\Bee\artifacts\mvdfrm\Unity.VisualScripting.State.Editor.ref.dll_E03858E727F23F6F.mvfrm
Library\Bee\artifacts\mvdfrm\Unity.VisualScripting.State.ref.dll_D91762B7076BE462.mvfrm
Library\Bee\artifacts\mvdfrm\UnityEditor.TestRunner.ref.dll_193EC4CE382CBFB3.mvfrm
Library\Bee\artifacts\mvdfrm\UnityEditor.UI.ref.dll_4C98D3F7040CD4F5.mvfrm
Library\Bee\artifacts\mvdfrm\UnityEngine.TestRunner.ref.dll_E55D0F7C63F01D9E.mvfrm
Library\Bee\artifacts\mvdfrm\UnityEngine.UI.ref.dll_08FEAA520A2EFD60.mvfrm
Library\Bee\artifacts\mvdfrm\Unity.Plastic.Antlr3.Runtime.dll_ABB0A550D5AA716B.mvfrm
Library\Bee\artifacts\mvdfrm\Unity.Plastic.Newtonsoft.Json.dll_A584ACBACEE8639A.mvfrm
Library\Bee\artifacts\mvdfrm\Unity.VisualScripting.IonicZip.dll_151B3B2B9696CB92.mvfrm
Library\Bee\artifacts\mvdfrm\Unity.VisualScripting.YamlDotNet.dll_FCB00359CF55308A.mvfrm
Library\Bee\artifacts\mvdfrm\Unity.VisualScripting.Antlr3.Runtime.dll_AE1D2A3B001E40A9.mvfrm
Library\Bee\artifacts\mvdfrm\UnityEditor.Graphs.dll_89D329B817838352.mvfrm
Library\Bee\artifacts\mvdfrm\UnityEditor.CoreModule.dll_C587CC17834A1920.mvfrm
Library\Bee\artifacts\mvdfrm\UnityEditor.DeviceSimulatorModule.dll_4B0141FA975E5EA1.mvfrm
Library\Bee\artifacts\mvdfrm\UnityEditor.DiagnosticsModule.dll_B431B282022880AF.mvfrm
Library\Bee\artifacts\mvdfrm\UnityEditor.dll_5FAE0850F7C34675.mvfrm
Library\Bee\artifacts\mvdfrm\UnityEditor.GraphViewModule.dll_95DEF03CE5E9E4A6.mvfrm
Library\Bee\artifacts\mvdfrm\UnityEditor.PackageManagerUIModule.dll_B5C952A4DB2D1E7C.mvfrm
Library\Bee\artifacts\mvdfrm\UnityEditor.QuickSearchModule.dll_3F41338F5AFF7D08.mvfrm
Library\Bee\artifacts\mvdfrm\UnityEditor.SceneTemplateModule.dll_A4C5CCEB80BE2C89.mvfrm
Library\Bee\artifacts\mvdfrm\UnityEditor.TextCoreFontEngineModule.dll_A10A251518A1A69E.mvfrm
Library\Bee\artifacts\mvdfrm\UnityEditor.TextCoreTextEngineModule.dll_E8F25B86A8255FBC.mvfrm
Library\Bee\artifacts\mvdfrm\UnityEditor.UIBuilderModule.dll_EA679D5958A25DDA.mvfrm
Library\Bee\artifacts\mvdfrm\UnityEditor.UIElementsModule.dll_501127F1B7D1145C.mvfrm
Library\Bee\artifacts\mvdfrm\UnityEditor.UIElementsSamplesModule.dll_6B8C0B6ACC4806D1.mvfrm
Library\Bee\artifacts\mvdfrm\UnityEditor.UIServiceModule.dll_2359AEBC41D9ADF4.mvfrm
Library\Bee\artifacts\mvdfrm\UnityEditor.UnityConnectModule.dll_44F4A0E4FD7B57D6.mvfrm
Library\Bee\artifacts\mvdfrm\UnityEngine.AccessibilityModule.dll_D76B388281345426.mvfrm
Library\Bee\artifacts\mvdfrm\UnityEngine.AIModule.dll_0A3F7E9F3C640374.mvfrm
Library\Bee\artifacts\mvdfrm\UnityEngine.AndroidJNIModule.dll_CE5A10C500F08332.mvfrm
Library\Bee\artifacts\mvdfrm\UnityEngine.AnimationModule.dll_64646C65C046B94C.mvfrm
Library\Bee\artifacts\mvdfrm\UnityEngine.ARModule.dll_C3B243A29981623D.mvfrm
Library\Bee\artifacts\mvdfrm\UnityEngine.AssetBundleModule.dll_832A6680BD6631FA.mvfrm
Library\Bee\artifacts\mvdfrm\UnityEngine.AudioModule.dll_8EDFB6F699AEE73E.mvfrm
Library\Bee\artifacts\mvdfrm\UnityEngine.ClothModule.dll_F5C813F173CBC622.mvfrm
Library\Bee\artifacts\mvdfrm\UnityEngine.ClusterInputModule.dll_C49115FAAF032A9C.mvfrm
Library\Bee\artifacts\mvdfrm\UnityEngine.ClusterRendererModule.dll_50AE046C07196C25.mvfrm
Library\Bee\artifacts\mvdfrm\UnityEngine.CoreModule.dll_E8A89F6A2B4F844B.mvfrm
Library\Bee\artifacts\mvdfrm\UnityEngine.CrashReportingModule.dll_145BB635C9AC34C3.mvfrm
Library\Bee\artifacts\mvdfrm\UnityEngine.DirectorModule.dll_90FDC1F87A6D0D28.mvfrm
Library\Bee\artifacts\mvdfrm\UnityEngine.dll_92524F295636D35A.mvfrm
Library\Bee\artifacts\mvdfrm\UnityEngine.DSPGraphModule.dll_964F2361ECCDDE49.mvfrm
Library\Bee\artifacts\mvdfrm\UnityEngine.GameCenterModule.dll_F8A75ADFC7317423.mvfrm
Library\Bee\artifacts\mvdfrm\UnityEngine.GIModule.dll_A27BC7ACD812EB8E.mvfrm
Library\Bee\artifacts\mvdfrm\UnityEngine.GridModule.dll_C619BB5843A41A42.mvfrm
Library\Bee\artifacts\mvdfrm\UnityEngine.HotReloadModule.dll_E5AD2A6B9B79D4CE.mvfrm
Library\Bee\artifacts\mvdfrm\UnityEngine.ImageConversionModule.dll_BCA0021C893E2419.mvfrm
Library\Bee\artifacts\mvdfrm\UnityEngine.IMGUIModule.dll_C73F565D5FE07B1F.mvfrm
Library\Bee\artifacts\mvdfrm\UnityEngine.InputLegacyModule.dll_146F819F5557E7EB.mvfrm
Library\Bee\artifacts\mvdfrm\UnityEngine.InputModule.dll_F5557EA70FE70BE2.mvfrm
Library\Bee\artifacts\mvdfrm\UnityEngine.JSONSerializeModule.dll_3782C1BE806FB4B0.mvfrm
Library\Bee\artifacts\mvdfrm\UnityEngine.LocalizationModule.dll_02DDE04D467F1D95.mvfrm
Library\Bee\artifacts\mvdfrm\UnityEngine.NVIDIAModule.dll_653C7BB39A0E0017.mvfrm
Library\Bee\artifacts\mvdfrm\UnityEngine.ParticleSystemModule.dll_676DFF8237BDC051.mvfrm
Library\Bee\artifacts\mvdfrm\UnityEngine.PerformanceReportingModule.dll_81AF15418A18240A.mvfrm
Library\Bee\artifacts\mvdfrm\UnityEngine.Physics2DModule.dll_B10A5C566143B0E1.mvfrm
Library\Bee\artifacts\mvdfrm\UnityEngine.PhysicsModule.dll_446651CCD61505CF.mvfrm
Library\Bee\artifacts\mvdfrm\UnityEngine.ProfilerModule.dll_C343FB2F13C69435.mvfrm
Library\Bee\artifacts\mvdfrm\UnityEngine.RuntimeInitializeOnLoadManagerInitializerModule.dll_C48BE7672FE863AA.mvfrm
Library\Bee\artifacts\mvdfrm\UnityEngine.ScreenCaptureModule.dll_516A6F4394DBE112.mvfrm
Library\Bee\artifacts\mvdfrm\UnityEngine.SharedInternalsModule.dll_40B140F2006C1F69.mvfrm
Library\Bee\artifacts\mvdfrm\UnityEngine.SpriteMaskModule.dll_E1D3CD6FE8A1099D.mvfrm
Library\Bee\artifacts\mvdfrm\UnityEngine.SpriteShapeModule.dll_9C8B93DB73086A04.mvfrm
Library\Bee\artifacts\mvdfrm\UnityEngine.StreamingModule.dll_18F959B60FCE708A.mvfrm
Library\Bee\artifacts\mvdfrm\UnityEngine.SubstanceModule.dll_F5A46DFF5B216E98.mvfrm
Library\Bee\artifacts\mvdfrm\UnityEngine.SubsystemsModule.dll_4C8133D1B6E8F1B0.mvfrm
Library\Bee\artifacts\mvdfrm\UnityEngine.TerrainModule.dll_5EACCD3BABD34EBD.mvfrm
Library\Bee\artifacts\mvdfrm\UnityEngine.TerrainPhysicsModule.dll_67E8A8555100BADE.mvfrm
Library\Bee\artifacts\mvdfrm\UnityEngine.TextCoreFontEngineModule.dll_1F69A0682B9F6569.mvfrm
Library\Bee\artifacts\mvdfrm\UnityEngine.TextCoreTextEngineModule.dll_6751D6D9BB231E87.mvfrm
Library\Bee\artifacts\mvdfrm\UnityEngine.TextRenderingModule.dll_7AA9E14E4C136107.mvfrm
Library\Bee\artifacts\mvdfrm\UnityEngine.TilemapModule.dll_FDA934BCC3902FC6.mvfrm
Library\Bee\artifacts\mvdfrm\UnityEngine.TLSModule.dll_E867CF73185ECAE3.mvfrm
Library\Bee\artifacts\mvdfrm\UnityEngine.UaaLAnalyticsModule.dll_C555111E26244C37.mvfrm
Library\Bee\artifacts\mvdfrm\UnityEngine.UIElementsModule.dll_50BF9539BA152DA7.mvfrm
Library\Bee\artifacts\mvdfrm\UnityEngine.UIElementsNativeModule.dll_0043073A4CA58E9E.mvfrm
Library\Bee\artifacts\mvdfrm\UnityEngine.UIModule.dll_05B31CCC98AB0920.mvfrm
Library\Bee\artifacts\mvdfrm\UnityEngine.UmbraModule.dll_09B4630F26D592B1.mvfrm
Library\Bee\artifacts\mvdfrm\UnityEngine.UNETModule.dll_7B4EE753785E79C4.mvfrm
Library\Bee\artifacts\mvdfrm\UnityEngine.UnityAnalyticsModule.dll_870D704BE3E5124D.mvfrm
Library\Bee\artifacts\mvdfrm\UnityEngine.UnityConnectModule.dll_325424F3F8035881.mvfrm
Library\Bee\artifacts\mvdfrm\UnityEngine.UnityCurlModule.dll_97810D97305AAB39.mvfrm
Library\Bee\artifacts\mvdfrm\UnityEngine.UnityTestProtocolModule.dll_274EC15D26435C27.mvfrm
Library\Bee\artifacts\mvdfrm\UnityEngine.UnityWebRequestAssetBundleModule.dll_2E7D1D9F2972A6DE.mvfrm
Library\Bee\artifacts\mvdfrm\UnityEngine.UnityWebRequestAudioModule.dll_F9AB69201082EEA2.mvfrm
Library\Bee\artifacts\mvdfrm\UnityEngine.UnityWebRequestModule.dll_CE3F09C69432BE98.mvfrm
Library\Bee\artifacts\mvdfrm\UnityEngine.UnityWebRequestTextureModule.dll_E2C08DD1DE4E8CB7.mvfrm
Library\Bee\artifacts\mvdfrm\UnityEngine.UnityWebRequestWWWModule.dll_32141C35AAE2DAF3.mvfrm
Library\Bee\artifacts\mvdfrm\UnityEngine.VehiclesModule.dll_08C0BB77F496DCC3.mvfrm
Library\Bee\artifacts\mvdfrm\UnityEngine.VFXModule.dll_694667E1EECC3450.mvfrm
Library\Bee\artifacts\mvdfrm\UnityEngine.VideoModule.dll_B3E93B615C4102E3.mvfrm
Library\Bee\artifacts\mvdfrm\UnityEngine.VirtualTexturingModule.dll_24CFBBA925540F29.mvfrm
Library\Bee\artifacts\mvdfrm\UnityEngine.VRModule.dll_588543523A658E98.mvfrm
Library\Bee\artifacts\mvdfrm\UnityEngine.WindModule.dll_5EF77A92BC8602B4.mvfrm
Library\Bee\artifacts\mvdfrm\UnityEngine.XRModule.dll_8B440656C39FDBF6.mvfrm
Library\Bee\artifacts\mvdfrm\UnityEditor.WebGL.Extensions.dll_E374DF8869B38790.mvfrm
Library\Bee\artifacts\mvdfrm\UnityEditor.WindowsStandalone.Extensions.dll_28A089D59D530A80.mvfrm