%YAML 1.1
%TAG !u! tag:unity3d.com,2011:
--- !u!114 &11400000
MonoBehaviour:
  m_ObjectHideFlags: 0
  m_CorrespondingSourceObject: {fileID: 0}
  m_PrefabInstance: {fileID: 0}
  m_PrefabAsset: {fileID: 0}
  m_GameObject: {fileID: 0}
  m_Enabled: 1
  m_EditorHideFlags: 0
  m_Script: {fileID: 11500000, guid: 7d2296c7c5ca5da468a6b15e6874f1c4, type: 3}
  m_Name: 2E587725-0C24-49D7-8998-1A3C5BAFCDED
  m_EditorClassIdentifier: 
  objectName: Music_1
  id: 508837814
  guid: 2E587725-0C24-49D7-8998-1A3C5BAFCDED
